﻿Customer,Community,Score,UB1,UB2,,Total Score
Adams,0,0,20.13519814,-1.249E-15,,0
Allen,0,0,11.60839161,-8.60423E-16,,
Anderson,0,0,21.60606061,3.19189E-16,,
Bailey,0,0,23.85547786,-1.11022E-16,,
Baker,0,0,13.24941725,6.80012E-16,,
Barnes,0,0,11.45454545,-5.6205E-16,,
Bell,0,0,21.60606061,3.19189E-16,,
Bennett,0,0,21.67832168,-2.41474E-15,,
Brooks,0,0,14.73193473,-3.05311E-16,,
Brown,0,0,20.94405594,-1.19349E-15,,
Butler,0,0,3.93006993,-2.70617E-16,,
Campbell,0,0,17.24941725,1.94289E-16,,
Carter,0,0,21.70629371,8.32667E-16,,
Clark,0,0,11.3986014,-3.60822E-16,,
Collins,0,0,12.46620047,-3.19189E-16,,
Cook,0,0,21.60606061,3.19189E-16,,
Cooper,0,0,5.909090909,-2.35922E-16,,
Cox,0,0,21.60606061,3.19189E-16,,
Cruz,0,0,24.89044289,2.77556E-17,,
Davis,0,0,5.944055944,-7.07767E-16,,
Diaz,0,0,25.38461538,9.4369E-16,,
Edwards,0,0,14.06060606,-4.44089E-16,,
Evans,0,0,9.638694639,-3.46945E-16,,
Fisher,0,0,15.23543124,-1.94289E-16,,
Flores,0,0,17.24941725,-2.498E-16,,
Foster,0,0,7.869463869,-1.04083E-15,,
Garcia,0,0,5.916083916,-8.74301E-16,,
Gomez,0,0,5.923076923,1.249E-16,,
Gonzalez,0,0,11.53846154,-8.88178E-16,,
Gray,0,0,1.976689977,-2.74086E-16,,
Green,0,0,20.60606061,-1.249E-16,,
Gutierrez,0,0,10.67132867,-1.30451E-15,,
Hall,0,0,11.48251748,-6.38378E-16,,
Harris,0,0,11.58041958,-8.36137E-16,,
Hernandez,0,0,10.67132867,-4.71845E-16,,
Hill,0,0,24.16783217,-2.498E-16,,
Howard,0,0,7.794871795,-9.71445E-17,,
Hughes,0,0,23.96037296,-6.38378E-16,,
Jackson,0,0,9.696969697,-3.46945E-16,,
James,0,0,23.06293706,1.11022E-16,,
Jenkins,0,0,21.60606061,1.20737E-15,,
Johnson,0,0,18.76923077,1.91513E-15,,
Jones,0,0,22.58741259,-1.249E-15,,
Kelly,0,0,9.662004662,-1.11022E-16,,
King,0,0,21.46853147,-7.49401E-16,,
Lee,0,0,9.708624709,-1.249E-16,,
Lewis,0,0,20.90909091,-1.13798E-15,,
Long,0,0,3.906759907,3.95517E-16,,
Lopez,0,0,1.986013986,-2.46331E-16,,
Martin,0,0,5.867132867,-3.19189E-16,,
Martinez,0,0,1.993006993,-1.35308E-16,,
Miller,0,0,11.66433566,-1.11022E-15,,
Mitchell,0,0,9.58041958,-3.46945E-16,,
Moore,0,0,17.24941725,-6.93889E-16,,
Morales,0,0,9.72027972,1.11022E-16,,
Morgan,0,0,21.67832168,-1.52656E-15,,
Morris,0,0,18.76923077,1.91513E-15,,
Murphy,0,0,9.137529138,-1.38778E-17,,
Myers,0,0,20.06060606,1.15186E-15,,
Nelson,0,0,14.45221445,2.77556E-17,,
Nguyen,0,0,7.72960373,-3.19189E-16,,
Ortiz,0,0,22.58741259,-5.82867E-16,,
Parker,0,0,0,0,,
Perez,0,0,20.06060606,2.63678E-16,,
Perry,0,0,26.96736597,-1.05471E-15,,
Peterson,0,0,3.93006993,-3.26128E-16,,
Phillips,0,0,17.24941725,-6.93889E-16,,
Powell,0,0,1.993006993,-2.46331E-16,,
Price,0,0,13.37995338,1.1241E-15,,
Ramirez,0,0,7.832167832,-5.96745E-16,,
Reed,0,0,5.951048951,-6.52256E-16,,
Reyes,0,0,7.813519814,-3.19189E-16,,
Richardson,0,0,3.939393939,-4.85723E-17,,
Rivera,0,0,19.44055944,-2.77556E-16,,
Roberts,0,0,20.33333333,1.19349E-15,,
Robinson,0,0,23.08624709,-1.16573E-15,,
Rodriguez,0,0,17.5990676,-2.498E-16,,
Rogers,0,0,5.867132867,-9.71445E-17,,
Ross,0,0,7.515151515,-4.85723E-16,,
Russell,0,0,17.48251748,-1.58207E-15,,
Sanchez,0,0,5.937062937,-4.30211E-16,,
Sanders,0,0,5.944055944,-5.41234E-16,,
Scott,0,0,3.953379953,-3.81639E-16,,
Smith,0,0,18.92307692,2.35922E-15,,
Stewart,0,0,22.46853147,-9.99201E-16,,
Sullivan,0,0,15,8.18789E-16,,
Taylor,0,0,24.8951049,-5.55112E-17,,
Thomas,0,0,3.967365967,-1.04083E-16,,
Thompson,0,0,3.967365967,-2.42861E-16,,
Torres,0,0,22.58741259,-4.71845E-16,,
Turner,0,0,15.06759907,-1.52656E-16,,
Walker,0,0,21.44055944,1.85962E-15,,
Ward,0,0,9.662004662,9.71445E-17,,
Watson,0,0,23.08624709,-6.10623E-16,,
White,0,0,5.916083916,-3.19189E-16,,
Williams,0,0,5.832167832,-4.30211E-16,,
Wilson,0,0,24.12587413,7.49401E-16,,
Wood,0,0,9.568764569,9.71445E-17,,
Wright,0,0,7.776223776,5.13478E-16,,
Young,0,0,7.794871795,-5.41234E-16,,
